<?xml version="1.0" standalone="no"?>
<!DOCTYPE svg PUBLIC "-//W3C//DTD SVG 20010904//EN"
 "http://www.w3.org/TR/2001/REC-SVG-20010904/DTD/svg10.dtd">
<svg version="1.0" xmlns="http://www.w3.org/2000/svg"
 width="700.000000pt" height="700.000000pt" viewBox="0 0 700.000000 700.000000"
 preserveAspectRatio="xMidYMid meet">
<metadata>
Created by potrace 1.11, written by Peter Selinger 2001-2013
</metadata>
<g transform="translate(0.000000,700.000000) scale(0.100000,-0.100000)"
fill="#000000" stroke="none">
<path d="M5658 5465 c-2 -2 -42 -6 -89 -9 -48 -3 -93 -8 -100 -10 -8 -3 -32
-8 -53 -11 -69 -10 -195 -45 -272 -75 -304 -121 -518 -307 -639 -555 -64 -130
-87 -224 -90 -375 -7 -298 79 -515 290 -725 128 -127 253 -212 475 -323 113
-56 146 -72 365 -168 437 -192 615 -323 705 -516 49 -106 62 -253 34 -378 -7
-30 -32 -92 -55 -137 -142 -283 -524 -458 -974 -448 -142 4 -194 9 -300 31
-453 94 -760 386 -901 859 -14 44 -27 94 -30 110 -2 17 -7 37 -9 45 -4 14 -7
37 -20 132 -15 104 -17 310 -18 1341 0 625 -3 1137 -6 1138 -3 1 -331 2 -728
2 -475 1 -724 -1 -726 -8 -3 -9 -1 -121 2 -135 0 -3 13 -6 28 -6 123 0 349
-45 429 -84 116 -58 170 -136 202 -292 14 -74 16 -182 17 -948 0 -761 -4 -989
-20 -1065 -3 -11 -7 -37 -10 -57 -2 -20 -14 -77 -24 -125 -123 -549 -442 -854
-896 -857 -180 -1 -279 18 -391 75 -67 34 -151 108 -198 171 -68 95 -143 315
-161 473 -24 218 -23 166 -24 1566 l-1 1276 -735 0 -735 0 0 -76 c0 -66 2 -77
18 -77 71 -1 286 -34 347 -53 92 -28 164 -79 205 -146 30 -49 59 -174 66 -288
4 -56 7 -518 8 -1027 1 -509 4 -929 8 -935 3 -5 9 -41 12 -80 4 -38 9 -77 11
-85 2 -8 7 -31 10 -50 3 -19 11 -53 16 -75 6 -22 12 -47 14 -56 9 -46 62 -185
101 -263 205 -413 593 -625 1148 -629 636 -5 1201 372 1428 953 11 29 6 35 85
-85 220 -334 565 -608 943 -748 156 -58 276 -88 450 -112 90 -13 552 -14 620
-1 14 2 54 7 90 10 36 3 77 8 93 11 15 3 38 7 52 9 179 31 378 93 525 162 414
196 667 494 728 857 9 56 9 269 0 332 -46 304 -245 559 -610 782 -110 67 -352
189 -533 268 -348 152 -537 259 -636 359 -90 90 -129 161 -152 276 -57 284
118 523 448 611 110 30 325 34 445 9 332 -69 557 -274 724 -663 20 -48 50
-126 65 -174 l28 -88 76 -3 77 -3 -5 53 c-5 69 -15 195 -20 283 -10 150 -15
233 -20 295 -6 85 -13 182 -21 305 -6 89 -9 124 -13 147 0 5 -28 6 -60 4 -44
-2 -65 -9 -83 -25 -60 -57 -129 -64 -263 -25 -50 14 -128 36 -175 50 -73 21
-155 38 -275 59 -51 8 -312 25 -317 20z"/>
</g>
</svg>
